{
    "data": [
        {
            "id": "1",
            "title": "50% de descuento en restaurantes de playa"
        },
        {
            "id": "2",
            "title": "50% de descuento todos los jueves de Abril"
        }
    ]
}